[1] "en_US.utf8"
  |                                                                              |                                                                      |   0%  |                                                                              |....                                                                  |   6%
   inline R code fragments

  |                                                                              |........                                                              |  11%
label: setup (with options) 
List of 1
 $ include: logi FALSE

  |                                                                              |............                                                          |  17%
  ordinary text without R code

  |                                                                              |................                                                      |  22%
label: unnamed-chunk-1 (with options) 
List of 2
 $ message: logi FALSE
 $ warning: logi FALSE

  |                                                                              |...................                                                   |  28%
  ordinary text without R code

  |                                                                              |.......................                                               |  33%
label: unnamed-chunk-2
  |                                                                              |...........................                                           |  39%
  ordinary text without R code

  |                                                                              |...............................                                       |  44%
label: unnamed-chunk-3
  |                                                                              |...................................                                   |  50%
  ordinary text without R code

  |                                                                              |.......................................                               |  56%
label: unnamed-chunk-4
  |                                                                              |...........................................                           |  61%
  ordinary text without R code

  |                                                                              |...............................................                       |  67%
label: unnamed-chunk-5 (with options) 
List of 5
 $ message   : logi FALSE
 $ warning   : logi FALSE
 $ fig.align : chr "center"
 $ fig.height: num 11
 $ fig.width : num 8.5

  |                                                                              |...................................................                   |  72%
  ordinary text without R code

  |                                                                              |......................................................                |  78%
label: unnamed-chunk-6
  |                                                                              |..........................................................            |  83%
  ordinary text without R code

  |                                                                              |..............................................................        |  89%
label: unnamed-chunk-7
  |                                                                              |..................................................................    |  94%
  ordinary text without R code

  |                                                                              |......................................................................| 100%
label: unnamed-chunk-8

/mnt/IM/DKT/software/anaconda3/envs/bioinfo/bin/pandoc +RTS -K512m -RTS NMF_analysis_union_genes.utf8.md --to html4 --from markdown+autolink_bare_uris+tex_math_single_backslash --output NMF_analysis_union_genes.html --lua-filter /home/ubuntu/R/x86_64-pc-linux-gnu-library/4.0/rmarkdown/rmarkdown/lua/pagebreak.lua --lua-filter /home/ubuntu/R/x86_64-pc-linux-gnu-library/4.0/rmarkdown/rmarkdown/lua/latex-div.lua --self-contained --mathjax --variable 'mathjax-url:https://mathjax.rstudio.com/latest/MathJax.js?config=TeX-AMS-MML_HTMLorMML' --variable 'readthedown:true' --variable 'lightbox:true' --variable 'thumbnails:true' --variable 'gallery:false' --variable bs3=TRUE --standalone --section-divs --table-of-contents --toc-depth 2 --template /home/ubuntu/R/x86_64-pc-linux-gnu-library/4.0/rmdformats/templates/template.html --highlight-style tango --variable theme=bootstrap --include-in-header /mnt/IM/tmp//RtmpzjVPf3/rmarkdown-str525f1bce0fa7.html --variable code_folding=show --variable code_menu=1 
